<?xml version="1.0" encoding="utf-8"?>
<!-- Generator: Adobe Illustrator 26.0.3, SVG Export Plug-In . SVG Version: 6.00 Build 0)  -->
<svg version="1.1" id="Layer_1" xmlns="http://www.w3.org/2000/svg" xmlns:xlink="http://www.w3.org/1999/xlink" x="0px" y="0px"
	 viewBox="0 0 16 16" style="enable-background:new 0 0 16 16;" xml:space="preserve">
<style type="text/css">
	.st0{fill:#56DCD7;}
</style>
<g>
	<g>
		<g>
			<path class="st0" d="M15,6.9H0.5V6.1h13.6l-2.9-2.9l0.5-0.5l3.5,3.5c0.1,0.1,0.1,0.3,0.1,0.4C15.3,6.8,15.2,6.9,15,6.9z"/>
		</g>
	</g>
	<g>
		<g>
			<path class="st0" d="M4.2,13.3L0.7,9.8c-0.1-0.1-0.1-0.3,0-0.4c0-0.2,0.1-0.3,0.3-0.3h14.5v0.8H1.9l2.9,2.9L4.2,13.3z"/>
		</g>
	</g>
</g>
</svg>
