<?xml version="1.0" encoding="utf-8"?>
<!-- Generator: Adobe Illustrator 26.0.3, SVG Export Plug-In . SVG Version: 6.00 Build 0)  -->
<svg version="1.1" id="Layer_1" xmlns="http://www.w3.org/2000/svg" xmlns:xlink="http://www.w3.org/1999/xlink" x="0px" y="0px"
	 viewBox="0 0 18 19" style="enable-background:new 0 0 18 19;" xml:space="preserve">
<style type="text/css">
	.st0{clip-path:url(#SVGID_00000101085706769647596980000002255283797450946986_);}
	.st1{fill:#656675;}
</style>
<g>
	<defs>
		<rect id="SVGID_1_" x="2" y="2.6" width="14" height="14"/>
	</defs>
	<clipPath id="SVGID_00000052798033999235735580000011283518610480408494_">
		<use xlink:href="#SVGID_1_"  style="overflow:visible;"/>
	</clipPath>
	<g style="clip-path:url(#SVGID_00000052798033999235735580000011283518610480408494_);">
		<path class="st1" d="M9.9,9.5c0,2.2-1.8,4-3.9,4S2,11.7,2,9.5s1.8-4,3.9-4C8.1,5.5,9.9,7.3,9.9,9.5z M14.2,9.5
			c0,2.1-0.9,3.7-2,3.7s-2-1.7-2-3.7c0-2.1,0.9-3.7,2-3.7C13.3,5.8,14.2,7.4,14.2,9.5L14.2,9.5z M16,9.5c0,1.9-0.3,3.4-0.7,3.4
			c-0.4,0-0.7-1.5-0.7-3.4c0-1.9,0.3-3.4,0.7-3.4C15.7,6.2,16,7.7,16,9.5z"/>
	</g>
</g>
</svg>
