<?xml version="1.0" encoding="utf-8"?>
<!-- Generator: Adobe Illustrator 26.0.3, SVG Export Plug-In . SVG Version: 6.00 Build 0)  -->
<svg version="1.1" id="Layer_1" xmlns="http://www.w3.org/2000/svg" xmlns:xlink="http://www.w3.org/1999/xlink" x="0px" y="0px"
	 viewBox="0 0 20 21" style="enable-background:new 0 0 20 21;" xml:space="preserve">
<style type="text/css">
	.st0{fill-rule:evenodd;clip-rule:evenodd;fill:#656675;}
</style>
<path class="st0" d="M17.6,5.8c-0.6,0.3-1.2,0.5-1.9,0.5c0.7-0.4,1.2-1.1,1.4-1.8c-0.7,0.4-1.3,0.7-2,0.8c-1-1-2.3-1.2-3.5-0.8
	C10.3,5,9.5,6.2,9.5,7.5c0,0.3,0.1,0.5,0.1,0.8C6.9,8.1,4.4,6.9,2.8,4.9C2.5,5.3,2.3,5.9,2.3,6.5c0,1.1,0.6,2.1,1.4,2.8
	c-0.5,0-1-0.2-1.4-0.4V9c0,1.5,1.1,2.9,2.6,3.2c-0.3,0.1-0.6,0.1-0.9,0.1c-0.2,0-0.4,0-0.7-0.1c0.5,1.3,1.6,2.2,3.1,2.3
	c-1.1,0.9-2.6,1.4-4,1.4c-0.3,0-0.6,0-0.8-0.1c1.5,1,3.3,1.4,5,1.4c6,0,9.3-5,9.3-9.3V7.6C16.7,7.1,17.2,6.5,17.6,5.8z"/>
</svg>
