<?xml version="1.0" encoding="utf-8"?>
<!-- Generator: Adobe Illustrator 26.0.3, SVG Export Plug-In . SVG Version: 6.00 Build 0)  -->
<svg version="1.1" id="Layer_1" xmlns="http://www.w3.org/2000/svg" xmlns:xlink="http://www.w3.org/1999/xlink" x="0px" y="0px"
	 viewBox="0 0 24 24" style="enable-background:new 0 0 24 24;" xml:space="preserve">
<style type="text/css">
	.st0{fill:#7582C0;}
</style>
<path class="st0" d="M22,9.7c-0.1-0.2-0.2-0.3-0.4-0.3l-7.1,0.1l-2.1-6.8c-0.1-0.2-0.2-0.3-0.4-0.3s-0.3,0.1-0.4,0.3L9.5,9.6
	L2.4,9.4C2.3,9.4,2.1,9.6,2,9.7C2,9.9,2,10.1,2.2,10.2L8,14.3L5.7,21c-0.1,0.2,0,0.3,0.1,0.5c0.1,0.1,0.3,0.1,0.5,0l5.7-4.3l5.7,4.3
	c0.1,0.1,0.2,0.1,0.2,0.1c0.1,0,0.2,0,0.2-0.1c0.1-0.1,0.2-0.3,0.1-0.5L16,14.3l5.8-4.1C22,10.1,22,9.9,22,9.7z"/>
</svg>
