<?xml version="1.0" encoding="utf-8"?>
<!-- Generator: Adobe Illustrator 26.0.3, SVG Export Plug-In . SVG Version: 6.00 Build 0)  -->
<svg version="1.1" id="Layer_1" xmlns="http://www.w3.org/2000/svg" xmlns:xlink="http://www.w3.org/1999/xlink" x="0px" y="0px"
	 viewBox="0 0 16 16" style="enable-background:new 0 0 16 16;" xml:space="preserve">
<style type="text/css">
	.st0{fill:url(#SVGID_1_);}
</style>
<linearGradient id="SVGID_1_" gradientUnits="userSpaceOnUse" x1="8" y1="1.5277" x2="8" y2="14.4976">
	<stop  offset="0" style="stop-color:#74DBD9"/>
	<stop  offset="1" style="stop-color:#8192F0"/>
</linearGradient>
<polygon class="st0" points="14.5,7.5 8.5,7.5 8.5,1.5 7.5,1.5 7.5,7.5 1.5,7.5 1.5,8.5 7.5,8.5 7.5,14.5 8.5,14.5 8.5,8.5 
	14.5,8.5 "/>
</svg>
