<?xml version="1.0" encoding="utf-8"?>
<!-- Generator: Adobe Illustrator 26.0.3, SVG Export Plug-In . SVG Version: 6.00 Build 0)  -->
<svg version="1.1" id="Layer_1" xmlns="http://www.w3.org/2000/svg" xmlns:xlink="http://www.w3.org/1999/xlink" x="0px" y="0px"
	 viewBox="0 0 200 200" style="enable-background:new 0 0 200 200;" xml:space="preserve">
<style type="text/css">
	.st0{opacity:0.4;}
	.st1{fill:#7582C2;}
</style>
<g>
	<g class="st0">
		<polygon class="st1" points="98.9,188.7 44.9,133.6 55.2,123.6 99.1,168.5 145.1,123.5 155.1,133.7 		"/>
	</g>
	<g class="st0">
		<polygon class="st1" points="145.1,76.5 99.1,31.5 55.2,76.4 44.9,66.4 98.9,11.3 155.1,66.3 		"/>
	</g>
</g>
</svg>
