<?xml version="1.0" encoding="utf-8"?>
<!-- Generator: Adobe Illustrator 26.0.3, SVG Export Plug-In . SVG Version: 6.00 Build 0)  -->
<svg version="1.1" id="Layer_1" xmlns="http://www.w3.org/2000/svg" xmlns:xlink="http://www.w3.org/1999/xlink" x="0px" y="0px"
	 viewBox="0 0 16 16" style="enable-background:new 0 0 16 16;" xml:space="preserve">
<style type="text/css">
	.st0{fill:#7582C2;}
</style>
<g>
	<path class="st0" d="M4.3,6.9c1.2,0,2.2-1,2.2-2.2s-1-2.2-2.2-2.2c-1.2,0-2.2,1-2.2,2.2S3.1,6.9,4.3,6.9z M4.3,3.2
		c0.8,0,1.5,0.7,1.5,1.5c0,0.8-0.7,1.5-1.5,1.5c-0.8,0-1.5-0.7-1.5-1.5C2.8,3.9,3.5,3.2,4.3,3.2z"/>
	<path class="st0" d="M6.7,8.6C6,8.1,5.1,7.8,4.2,7.8c-2,0-3.8,1.5-4.2,3.7l0.7,0.1C1,9.8,2.5,8.5,4.2,8.5c0.7,0,1.5,0.2,2.1,0.7
		L6.7,8.6z"/>
	<path class="st0" d="M10.5,8.3c-2.7,0-5.1,2.2-5.5,5.1l0.7,0.1c0.3-2.5,2.4-4.5,4.7-4.5c2.4,0,4.4,1.9,4.7,4.5l0.7-0.1
		C15.6,10.5,13.3,8.3,10.5,8.3z"/>
	<path class="st0" d="M10.5,7.4C11.9,7.4,13,6.3,13,5s-1.1-2.5-2.5-2.5C9.1,2.5,8,3.6,8,5S9.1,7.4,10.5,7.4z M10.5,3.2
		c1,0,1.8,0.8,1.8,1.8s-0.8,1.8-1.8,1.8S8.8,5.9,8.8,5S9.6,3.2,10.5,3.2z"/>
</g>
</svg>
