<?xml version="1.0" encoding="utf-8"?>
<!-- Generator: Adobe Illustrator 26.0.3, SVG Export Plug-In . SVG Version: 6.00 Build 0)  -->
<svg version="1.1" id="Layer_1" xmlns="http://www.w3.org/2000/svg" xmlns:xlink="http://www.w3.org/1999/xlink" x="0px" y="0px"
	 viewBox="0 0 20 20" style="enable-background:new 0 0 20 20;" xml:space="preserve">
<style type="text/css">
	.st0{fill:#7582C2;}
</style>
<g>
	<g>
		<g>
			<g>
				<path class="st0" d="M18.2,8.7H1.3V7.9h16l-3.5-3.5l0.5-0.5L18.4,8c0.1,0.1,0.1,0.3,0.1,0.4C18.5,8.6,18.3,8.7,18.2,8.7z"/>
			</g>
		</g>
	</g>
	<g>
		<g>
			<path class="st0" d="M5.7,16.1L1.6,12c-0.1-0.1-0.1-0.3-0.1-0.4c0.1-0.1,0.2-0.2,0.3-0.2h16.9v0.8h-16l3.5,3.5L5.7,16.1z"/>
		</g>
	</g>
</g>
</svg>
